Replication of Vanpeppen et al. (2018) Data Analysis
…
Before we format the question, we will randomly select 40 participants from each condition (SE vs no SE) to analyze. This will amount to a total of 80 participants.

# Split between the self-explanation versus no self-explanation participants.
data_attention <- data_attention[
  data_attention$condition %in% c("self_explanation", "no_self_explanation"),
]
# Obtain a row per participant in their respective conditions
participants <- unique(data_attention[, c("source_file", "condition")])
sampled_participants <- participants %>%
  group_by(condition) %>%
  sample_n(size = 40) %>%   # because both groups have at least 40
  ungroup()
print(sampled_participants)

# A tibble: 80 × 2
   source_file         condition          
   <chr>               <chr>              
 1 qllowho78v_SONA.csv no_self_explanation
 2 afl6mky2ka_SONA.csv no_self_explanation
 3 tzf979m8cu_SONA.csv no_self_explanation
 4 9p8nt5u1rz_SONA.csv no_self_explanation
 5 3o0xd7zdr2_TEST.csv no_self_explanation
 6 9t24wuz934_SONA.csv no_self_explanation
 7 fpxujx4vw3_TEST.csv no_self_explanation
 8 w4cpcbzbdy_SONA.csv no_self_explanation
 9 qqawcsravm_SONA.csv no_self_explanation
10 jfwoy0npza_SONA.csv no_self_explanation
# ℹ 70 more rows
…
