Replication of Effects of Self-Explaining on Learning and Transfer of Critical Thinking Skills X by Van Peppen et al. (2018, November)
…
# Split between the self-explanation versus no self-explanation participants. This is with the newly preprocessed data set from the attenetion check.
data_attention <- data_attention[
  data_attention$condition %in% c("self_explanation", "no_self_explanation"),
]
# Obtain a row per participant in their respective conditions
participants <- unique(data_attention[, c("source_file", "condition")])
# Randomly sample 40 participants from each condition
set.seed(1234) # adding to ensure that participant sampling is always identical
sampled_participants <- participants %>%
  group_by(condition) %>%
  sample_n(size = 40) %>%   # because both groups have at least 40
  ungroup()
print(sampled_participants)

# A tibble: 80 × 2
   source_file         condition          
   <chr>               <chr>              
 1 ngm3lmlah1_SONA.csv no_self_explanation
 2 bh7tl79spo_SONA.csv no_self_explanation
 3 go4ksb9dfa_SONA.csv no_self_explanation
 4 w4cpcbzbdy_SONA.csv no_self_explanation
 5 gh2ll43bwg_SONA.csv no_self_explanation
 6 l2lv4x6xky_SONA.csv no_self_explanation
 7 5jwe09o01v_TEST.csv no_self_explanation
 8 4cr2g21y23_SONA.csv no_self_explanation
 9 wd4gdquj2e_SONA.csv no_self_explanation
10 xsb0yojkka_SONA.csv no_self_explanation
# ℹ 70 more rows
…
